# 3ds Max Wavefront OBJ Exporter v0.97b - (c)2007 guruware
# File Created: 30.10.2018 18:36:25

mtllib rock1.mtl

#
# object rock1
#

v  -0.1225 62.1882 1.7163
v  19.0760 54.5288 2.8527
v  19.0461 52.3312 -9.7379
v  5.2068 55.0319 -14.1282
v  38.5115 56.4488 3.5343
v  32.2442 47.4701 -7.7580
v  34.4407 51.5683 -21.4027
v  24.1514 54.6707 -26.6165
v  9.2919 46.1882 -25.8157
v  53.2761 45.9658 3.8216
v  45.0926 40.4350 -9.6484
v  69.5506 29.2825 3.4417
v  61.8716 34.7280 -16.6503
v  48.9743 33.6535 -30.8291
v  43.0092 46.0030 -27.1981
v  24.2362 40.8483 -74.0790
v  15.4030 48.6821 -48.1663
v  26.1902 38.4972 -32.5966
v  37.8841 33.6223 -46.0510
v  -7.9175 53.0166 -18.7244
v  -13.4688 51.0674 -6.8721
v  -4.2809 52.6451 -33.6680
v  -13.9559 48.6150 -33.7241
v  -18.7807 46.2224 -23.8306
v  -24.3472 43.5199 -13.2387
v  -2.0320 46.2462 -48.0117
v  -1.9190 30.8596 -54.9147
v  -18.3953 30.1706 -48.5444
v  -15.4311 39.1355 -38.8444
v  -47.9639 22.7474 -29.2784
v  -39.7393 40.9799 -23.1053
v  -29.7824 42.5791 -34.6668
v  -36.0022 31.6261 -44.4719
v  -21.9180 48.2755 1.8100
v  -12.9592 50.8922 9.2625
v  -35.7461 50.0079 -4.8797
v  -40.2590 46.9601 3.3316
v  -36.1480 50.4576 10.5202
v  -28.1081 53.1059 19.2076
v  -43.2372 37.1208 -9.0452
v  -50.1833 24.6973 -10.9730
v  -50.4311 24.8422 5.2613
v  -42.6772 34.1956 4.6972
v  -51.9909 26.5431 41.8803
v  -36.1795 36.0453 27.7547
v  -41.4207 34.5561 16.7708
v  -50.7374 24.5576 21.2701
v  -3.6441 53.8089 22.1708
v  9.5035 53.6635 18.7123
v  -15.7382 48.9781 27.1481
v  -7.4686 52.2517 37.4873
v  4.7039 49.1800 35.7753
v  16.8873 44.8947 32.3253
v  -25.9964 40.3623 38.2799
v  -32.8184 31.1078 51.0734
v  -18.0016 39.9820 63.4334
v  -11.6826 52.9635 49.7456
v  26.5276 28.2506 65.8549
v  23.9987 51.1295 55.8505
v  6.9386 47.8188 52.7595
v  4.2785 39.4135 70.5204
v  21.2566 50.9875 15.3256
v  27.1577 49.1863 29.4670
v  36.8934 52.6781 26.6166
v  35.1888 50.6750 15.3567
v  38.0141 53.9324 48.1442
v  45.1184 35.2759 55.5328
v  58.7985 39.2706 42.6469
v  49.1808 55.9270 34.8931
v  58.0580 56.1108 19.2883
v  65.2975 35.7677 24.6912
v  73.6202 10.5189 17.2098
v  73.9140 -0.6051 4.3800
v  70.6191 9.4820 -7.3923
v  74.2978 -5.2043 28.8712
v  73.9420 -13.6854 14.7812
v  69.6695 -19.0819 4.6238
v  73.5110 -14.1536 -5.7353
v  61.9865 -5.6103 -14.9782
v  69.5427 -19.9287 39.2620
v  69.7361 -27.8870 22.2251
v  53.9733 -32.8014 46.0036
v  57.1632 -38.3376 24.6767
v  63.8670 -47.3342 4.5180
v  67.4831 -30.9246 4.6222
v  50.4305 -37.7099 -31.0160
v  54.4915 -18.5574 -21.7351
v  57.1100 -24.5504 -8.6471
v  48.3677 -35.5039 -9.9818
v  40.1833 15.2566 -70.0212
v  30.0524 3.6210 -87.7499
v  10.2987 17.4880 -86.3618
v  49.0857 -5.5463 -62.7572
v  38.5122 -15.1095 -74.0354
v  24.6381 -21.5891 -73.8313
v  14.0190 -15.0051 -83.9695
v  -1.9659 -4.8282 -86.4117
v  52.5597 -23.1770 -49.2010
v  35.4657 -28.2743 -54.3279
v  36.1674 -44.8077 -46.4607
v  18.8271 -46.0616 -54.8520
v  22.1247 -33.5324 -65.7194
v  -24.9711 -45.5565 -64.2640
v  -13.3463 -24.8220 -80.3079
v  4.7421 -31.5983 -71.7530
v  0.0061 -45.4778 -59.3438
v  -47.0876 8.1574 -43.2605
v  -54.5239 -1.0130 -34.8531
v  -56.0370 8.0160 -22.4451
v  -42.4395 -5.5498 -51.8408
v  -53.7297 -13.5007 -45.1537
v  -61.0791 -20.3662 -36.2331
v  -63.0981 -13.2354 -26.7889
v  -59.2436 -5.4567 -14.0636
v  -39.0446 -24.7372 -65.0574
v  -41.8400 -24.6994 -42.9514
v  -36.7672 -42.1257 -41.9344
v  -42.1162 -37.0180 -24.8222
v  -53.4250 -29.6375 -32.0112
v  -53.7691 -31.4392 5.6254
v  -66.4665 -19.9708 -6.0550
v  -61.4234 -27.5979 -18.8409
v  -47.8036 -34.4766 -10.7097
v  -59.5420 7.9280 33.8855
v  -54.2362 -0.7578 43.5635
v  -45.0487 9.1036 51.3680
v  -74.2978 -5.8243 28.6500
v  -66.6467 -14.4985 40.8863
v  -56.9849 -19.3382 46.4139
v  -52.6846 -13.5461 55.4988
v  -43.7908 -5.4161 64.2034
v  -71.2631 -21.7788 17.5325
v  -55.6623 -23.3815 27.9338
v  -48.4809 -34.6446 21.7269
v  -46.2929 -41.0929 38.2669
v  -51.4334 -28.8029 42.2689
v  -19.8663 -35.8380 65.1430
v  -36.3498 -21.6431 70.5483
v  -46.2934 -28.9198 58.1460
v  -32.5879 -37.2018 50.3304
v  14.3886 14.7614 85.7478
v  25.1265 4.3093 80.4724
v  39.0680 13.7939 72.9279
v  0.3573 -3.4867 82.7889
v  12.5567 -9.2670 77.8683
v  23.2927 -14.2547 80.7666
v  35.7265 -7.5491 82.8149
v  50.7410 0.2577 77.9713
v  -12.0521 -21.7162 87.7499
v  5.0919 -25.9889 79.8031
v  -0.0751 -38.0575 65.4259
v  22.7088 -49.0739 76.9337
v  23.1560 -27.4868 80.0732
v  51.8085 -16.5383 60.5484
v  43.1166 -26.1129 79.9262
v  38.5274 -39.9991 60.9572
v  53.1391 -9.5067 -34.4660
v  56.8908 3.0213 -48.9871
v  57.0459 7.5610 -36.0092
v  67.3839 2.0646 -29.4218
v  46.5170 18.6375 -49.8033
v  51.9966 17.2376 -32.7038
v  58.7366 14.8024 -19.1850
v  -24.5044 -10.8030 -67.4261
v  -34.6249 3.3846 -64.6257
v  -26.8207 13.7213 -74.8910
v  -17.4400 6.4539 -84.6004
v  -37.8330 18.1646 -55.0112
v  -24.5048 26.5409 -67.4830
v  -7.9486 24.2747 -74.0098
v  -70.4658 -10.5296 4.9746
v  -70.8575 2.0743 14.4931
v  -61.9879 5.6667 5.7507
v  -60.1391 0.7600 -2.8789
v  -66.5464 16.5640 20.6574
v  -56.3145 14.1329 5.6244
v  -56.0029 12.8186 -8.8301
v  -24.5690 -10.6211 77.6698
v  -11.6458 2.0031 69.1035
v  -20.7644 8.6238 67.3104
v  -33.8919 3.0454 72.3057
v  -3.5196 19.9785 75.7735
v  -21.5716 23.2027 70.9578
v  -37.7679 19.6636 65.2329
v  67.3914 -8.2111 54.6801
v  69.6219 3.4776 42.1012
v  63.7443 10.4427 51.1104
v  63.2070 7.0420 67.5793
v  70.6540 18.8796 32.8429
v  63.4151 22.8852 48.8843
v  56.6997 23.5574 68.8162
v  -0.8169 -62.1882 5.4033
v  -5.8847 -59.1233 -10.1973
v  5.8055 -57.4213 -14.9759
v  12.4542 -59.1233 -4.2387
v  -10.0304 -53.7117 -23.4074
v  1.3447 -55.5754 -27.8468
v  11.6395 -58.7777 -31.9012
v  16.3212 -53.1262 -21.9310
v  26.9671 -61.1362 -14.3420
v  -16.5054 -53.5316 -41.1643
v  -1.1111 -56.1903 -45.2583
v  13.9296 -50.0226 -39.8534
v  35.6739 -48.3848 -21.2004
v  26.8883 -50.7916 -32.9650
v  -17.2245 -59.1325 5.4063
v  -18.1510 -57.4213 -7.1920
v  -30.4013 -53.3615 5.4152
v  -29.8205 -52.4838 -6.1342
v  -28.3878 -50.2223 -14.7429
v  -20.8468 -52.6437 -18.9421
v  -41.8953 -44.5394 5.4347
v  -39.7201 -44.4788 -7.1984
v  -33.9744 -44.6274 -18.9437
v  -25.2056 -45.1187 -29.0035
v  -5.8904 -59.1325 21.0063
v  -18.1739 -57.4584 18.0116
v  -10.3314 -54.0501 34.9958
v  -21.1232 -52.9924 30.3089
v  -29.0043 -51.1118 26.0858
v  -29.9073 -52.5795 16.9959
v  -14.9826 -47.2939 50.3038
v  -26.1961 -46.3278 41.9828
v  -38.3515 -50.0749 32.4355
v  -40.0515 -44.7867 18.1841
v  12.4542 -59.1233 15.0441
v  5.8055 -57.4213 25.7813
v  24.6206 -53.4997 24.0744
v  17.1025 -52.8106 33.3864
v  10.7610 -51.0955 40.8177
v  1.1936 -53.1737 38.2666
v  38.4468 -45.1387 34.6926
v  28.2597 -45.9786 44.9631
v  14.2017 -46.5919 51.1380
v  -0.8528 -47.2383 53.1522
v  20.6114 -57.4213 5.4027
v  31.8150 -56.4772 -2.9464
v  34.0261 -50.4137 5.6643
v  30.4919 -52.6062 13.8339
v  39.2654 -45.1901 -7.7811
v  42.4011 -45.6933 5.9388
v  42.3108 -44.9685 20.9408
# 242 vertices

vn -0.1461 0.9889 0.0272
vn 0.1559 0.9870 0.0397
vn 0.2644 0.9644 0.0080
vn 0.1697 0.8746 -0.4543
vn 0.2885 0.9513 -0.1088
vn 0.4025 0.8766 -0.2637
vn 0.4276 0.8963 0.1175
vn 0.0221 0.8521 -0.5229
vn 0.0033 0.9570 -0.2902
vn 0.5366 0.6176 -0.5750
vn 0.3644 0.9158 -0.1690
vn 0.9033 0.4167 -0.1018
vn 0.7337 0.5722 -0.3664
vn 0.7185 0.3522 -0.5998
vn 0.5342 0.6978 -0.4772
vn 0.1995 0.7528 -0.6273
vn 0.2483 0.9672 -0.0540
vn 0.4358 0.7496 -0.4981
vn 0.5829 0.7814 -0.2229
vn -0.3148 0.9480 -0.0473
vn -0.5302 0.8299 -0.1737
vn 0.0740 0.9715 -0.2254
vn -0.5494 0.6988 -0.4581
vn -0.4387 0.8986 0.0008
vn -0.2072 0.9286 -0.3078
vn -0.3640 0.6304 -0.6857
vn -0.4370 0.7037 -0.5602
vn -0.1129 0.8966 -0.4283
vn -0.3759 0.6317 -0.6779
vn -0.8633 0.4066 -0.2992
vn -0.5974 0.7869 -0.1545
vn -0.2409 0.8643 -0.4416
vn -0.5181 0.6445 -0.5624
vn -0.0661 0.9978 -0.0014
vn -0.3188 0.9469 0.0430
vn -0.3061 0.9001 -0.3100
vn -0.9076 0.4182 -0.0372
vn -0.5384 0.8396 0.0721
vn -0.2608 0.9119 0.3169
vn -0.8714 0.4898 0.0256
vn -0.8822 0.4616 -0.0928
vn -0.8266 0.5626 -0.0117
vn -0.8883 0.4466 0.1068
vn -0.7280 0.5612 0.3939
vn -0.6085 0.7611 0.2247
vn -0.7995 0.5719 0.1835
vn -0.6058 0.7933 -0.0608
vn -0.1239 0.9848 0.1216
vn 0.2148 0.8952 0.3906
vn -0.2643 0.8885 0.3751
vn 0.0633 0.9820 -0.1779
vn 0.3089 0.9479 0.0783
vn -0.0031 0.9903 0.1392
vn -0.6215 0.7707 0.1408
vn -0.5275 0.7711 0.3566
vn -0.4800 0.6094 0.6311
vn -0.2542 0.9312 0.2612
vn 0.3453 0.5373 0.7695
vn -0.0523 0.8293 0.5564
vn -0.0259 0.9646 0.2625
vn 0.1210 0.6214 0.7741
vn 0.1459 0.9757 0.1634
vn -0.3339 0.9362 0.1100
vn -0.2707 0.9613 -0.0512
vn -0.0958 0.9854 0.1407
vn 0.1935 0.8826 0.4285
vn 0.2843 0.6578 0.6975
vn 0.7210 0.5053 0.4742
vn 0.2741 0.9268 0.2568
vn 0.5566 0.8168 -0.1515
vn 0.9162 0.3678 0.1592
vn 0.9897 0.1428 0.0123
vn 0.9937 0.0752 -0.0835
vn 0.8746 0.0690 -0.4800
vn 0.9860 -0.0172 0.1656
vn 0.9753 -0.2041 -0.0841
vn 0.9415 -0.3367 -0.0151
vn 0.8659 -0.2785 -0.4156
vn 0.8627 -0.2811 -0.4204
vn 0.8513 -0.4191 0.3156
vn 0.8358 -0.5342 0.1267
vn 0.6416 -0.6531 0.4024
vn 0.4737 -0.7944 0.3801
vn 0.6064 -0.7760 -0.1736
vn 0.9030 -0.1835 -0.3885
vn 0.8220 -0.5648 -0.0725
vn 0.9386 -0.2151 -0.2697
vn 0.6155 -0.5704 -0.5439
vn 0.6990 -0.6233 -0.3506
vn 0.8202 0.3178 -0.4757
vn 0.4386 0.0893 -0.8942
vn -0.1545 0.3303 -0.9311
vn 0.8191 -0.0478 -0.5717
vn 0.5984 -0.5109 -0.6172
vn 0.2997 -0.5975 -0.7438
vn 0.1097 -0.4783 -0.8713
vn -0.0584 -0.1158 -0.9916
vn 0.8201 -0.3820 -0.4260
vn 0.5304 -0.5591 -0.6372
vn 0.5439 -0.6785 -0.4938
vn 0.1907 -0.8507 -0.4898
vn 0.4376 -0.6119 -0.6588
vn -0.3446 -0.7523 -0.5616
vn -0.3157 -0.2922 -0.9028
vn 0.1385 -0.6644 -0.7344
vn 0.1327 -0.7422 -0.6569
vn -0.8427 0.2167 -0.4929
vn -0.8549 0.3326 -0.3981
vn -0.9416 0.2726 -0.1977
vn -0.7723 0.1954 -0.6045
vn -0.6238 -0.0598 -0.7793
vn -0.8502 -0.3457 -0.3971
vn -0.9767 0.1987 -0.0816
vn -0.9515 0.2980 -0.0759
vn -0.7137 -0.1546 -0.6831
vn -0.7458 -0.5001 -0.4401
vn -0.6968 -0.7001 -0.1559
vn -0.6057 -0.7952 -0.0263
vn -0.4402 -0.7831 -0.4392
vn -0.6346 -0.7705 -0.0599
vn -0.9454 -0.2905 -0.1476
vn -0.7496 -0.6497 -0.1263
vn -0.6047 -0.7917 -0.0865
vn -0.7497 0.2625 0.6075
vn -0.7127 0.3577 0.6034
vn -0.8390 0.1487 0.5234
vn -0.9440 0.1867 0.2721
vn -0.7774 -0.3084 0.5482
vn -0.5795 -0.5617 0.5904
vn -0.8218 0.0462 0.5679
vn -0.7414 0.1866 0.6446
vn -0.7754 -0.6261 0.0818
vn -0.6120 -0.7420 0.2735
vn -0.8030 -0.5957 0.0177
vn -0.7187 -0.6068 0.3395
vn -0.8569 -0.4855 0.1730
vn -0.3075 -0.7826 0.5413
vn -0.4703 -0.3206 0.8222
vn -0.6041 -0.6244 0.4951
vn -0.3376 -0.8108 0.4782
vn 0.1286 0.3532 0.9266
vn 0.1866 0.0182 0.9823
vn 0.0657 0.4438 0.8937
vn -0.1794 0.1952 0.9642
vn 0.0588 -0.0665 0.9961
vn -0.2103 0.0046 0.9776
vn 0.0731 0.0511 0.9960
vn 0.4962 -0.0233 0.8679
vn -0.2193 -0.2926 0.9308
vn 0.1276 -0.4650 0.8761
vn -0.3313 -0.7079 0.6238
vn 0.1154 -0.7487 0.6528
vn -0.0044 -0.1003 0.9949
vn 0.7677 -0.3997 0.5008
vn 0.5816 -0.3711 0.7239
vn 0.5858 -0.7903 0.1795
vn 0.9119 -0.3446 -0.2228
vn 0.9461 0.0679 -0.3167
vn 0.7110 0.6081 -0.3532
vn 0.9518 -0.0066 -0.3068
vn 0.8026 0.5260 -0.2815
vn 0.8788 0.3606 -0.3125
vn 0.8107 0.3180 -0.4916
vn -0.5773 -0.0153 -0.8164
vn -0.7767 -0.1073 -0.6207
vn -0.7114 0.2884 -0.6409
vn -0.3731 0.0746 -0.9248
vn -0.8068 0.3229 -0.4948
vn -0.3972 0.8044 -0.4419
vn -0.0891 0.8202 -0.5650
vn -0.9358 0.1179 -0.3324
vn -0.8908 0.3166 -0.3260
vn -0.7139 0.5086 -0.4813
vn -0.8862 0.3381 -0.3169
vn -0.7782 0.6175 0.1141
vn -0.8144 0.4835 -0.3210
vn -0.9277 0.3622 -0.0903
vn -0.3078 0.3022 0.9022
vn -0.3438 0.3177 0.8837
vn 0.0533 0.0003 0.9986
vn -0.3181 0.2390 0.9175
vn -0.3574 0.1169 0.9266
vn -0.2987 0.1425 0.9436
vn -0.7058 0.4434 0.5525
vn 0.8287 -0.3036 0.4702
vn 0.9292 0.1575 0.3343
vn 0.9416 0.2470 0.2290
vn 0.8636 0.0768 0.4983
vn 0.9491 0.2392 0.2049
vn 0.9153 0.2363 0.3262
vn 0.4465 0.5382 0.7148
vn 0.0003 -1.0000 -0.0002
vn -0.0833 -0.9631 -0.2557
vn 0.1397 -0.9668 -0.2140
vn 0.0345 -0.9991 -0.0260
vn -0.1821 -0.9739 -0.1352
vn -0.2232 -0.9748 0.0051
vn 0.2033 -0.9424 -0.2655
vn 0.1424 -0.9674 -0.2095
vn 0.2540 -0.9226 -0.2903
vn -0.4257 -0.9046 -0.0233
vn 0.0852 -0.9369 -0.3389
vn 0.3205 -0.8615 -0.3938
vn 0.6478 -0.7475 -0.1473
vn 0.2177 -0.9631 -0.1584
vn -0.2865 -0.9581 -0.0017
vn -0.2871 -0.9368 -0.2001
vn -0.5090 -0.8608 -0.0055
vn -0.5051 -0.8424 -0.1878
vn -0.4912 -0.8048 -0.3332
vn -0.3475 -0.8609 -0.3716
vn -0.6826 -0.7306 -0.0184
vn -0.6678 -0.7149 -0.2071
vn -0.5227 -0.7886 -0.3240
vn -0.5020 -0.8607 -0.0846
vn -0.0762 -0.9680 0.2392
vn -0.2807 -0.9425 0.1815
vn -0.1287 -0.9331 0.3358
vn -0.2981 -0.9007 0.3161
vn -0.1698 -0.9821 0.0818
vn -0.4959 -0.8586 0.1296
vn -0.2340 -0.8604 0.4527
vn -0.2953 -0.8203 0.4897
vn -0.4143 -0.8942 0.1695
vn -0.7018 -0.7115 -0.0357
vn 0.2115 -0.9653 0.1534
vn 0.0988 -0.9536 0.2843
vn 0.3291 -0.9197 0.2143
vn 0.2073 -0.9288 0.3073
vn 0.1272 -0.9292 0.3469
vn 0.0344 -0.9344 0.3546
vn 0.4487 -0.8654 0.2233
vn 0.2342 -0.9391 0.2516
vn 0.0752 -0.9910 0.1111
vn -0.0020 -0.8666 0.4991
vn 0.2335 -0.9672 0.1000
vn 0.6204 -0.7626 0.1833
vn 0.5993 -0.7707 0.2163
vn 0.4519 -0.8890 0.0737
vn 0.7548 -0.6450 -0.1192
vn 0.1986 -0.9800 -0.0127
vn 0.4419 -0.8933 0.0817
# 242 vertex normals

vt 0.6000 1.0000 73.8907
vt 0.5750 0.9119 73.8907
vt 0.6000 0.8532 73.8907
vt 0.6250 0.9119 73.8907
vt 0.5500 0.8238 73.8907
vt 0.5781 0.7901 73.8907
vt 0.6000 0.7650 73.8907
vt 0.6219 0.7901 73.8907
vt 0.6500 0.8238 73.8907
vt 0.5250 0.7278 73.8907
vt 0.5625 0.7182 73.8907
vt 0.5000 0.6291 73.8908
vt 0.5562 0.6464 73.8907
vt 0.6000 0.6500 73.8907
vt 0.6000 0.7135 73.8907
vt 0.7000 0.6291 73.8908
vt 0.6750 0.7278 73.8907
vt 0.6375 0.7182 73.8907
vt 0.6437 0.6464 73.8907
vt 0.8000 1.0000 73.8907
vt 0.7750 0.9119 73.8907
vt 0.8000 0.8532 73.8907
vt 0.8250 0.9119 73.8907
vt 0.7500 0.8238 73.8907
vt 0.7781 0.7901 73.8907
vt 0.8000 0.7654 73.8907
vt 0.8219 0.7911 73.8907
vt 0.8500 0.8238 73.8907
vt 0.7250 0.7278 73.8907
vt 0.7625 0.7182 73.8907
vt 0.7563 0.6464 73.8907
vt 0.8000 0.6515 73.8907
vt 0.8000 0.7145 73.8907
vt 0.9000 0.6476 73.8907
vt 0.8750 0.7357 73.8907
vt 0.8375 0.7222 73.8907
vt 0.8438 0.6524 73.8907
vt 0.0000 1.0000 73.8907
vt -0.0250 0.9119 73.8907
vt 0.0000 0.8532 73.8907
vt 0.0250 0.9119 73.8907
vt -0.0500 0.8238 73.8907
vt -0.0219 0.7908 73.8907
vt 0.0000 0.7646 73.8907
vt 0.0219 0.7898 73.8907
vt 0.0500 0.8238 73.8907
vt -0.0750 0.7357 73.8907
vt -0.0375 0.7210 73.8907
vt -0.1000 0.6476 73.8907
vt -0.0500 0.6476 73.8907
vt 0.0000 0.6476 73.8907
vt 0.0000 0.7127 73.8907
vt 0.1000 0.6288 73.8908
vt 0.0750 0.7278 73.8907
vt 0.0375 0.7170 73.8907
vt 0.0500 0.6397 73.8907
vt 0.2000 1.0000 73.8907
vt 0.1750 0.9119 73.8907
vt 0.2000 0.8532 73.8907
vt 0.2250 0.9119 73.8907
vt 0.1500 0.8238 73.8907
vt 0.1781 0.7901 73.8907
vt 0.2000 0.7650 73.8907
vt 0.2219 0.7901 73.8907
vt 0.2500 0.8238 73.8907
vt 0.1250 0.7278 73.8907
vt 0.1625 0.7182 73.8907
vt 0.1563 0.6464 73.8907
vt 0.2000 0.6500 73.8907
vt 0.2000 0.7135 73.8907
vt 0.3000 0.6291 73.8908
vt 0.2750 0.7278 73.8907
vt 0.2375 0.7182 73.8907
vt 0.2438 0.6464 73.8907
vt 0.4000 1.0000 73.8907
vt 0.3750 0.9119 73.8907
vt 0.4000 0.8532 73.8907
vt 0.4250 0.9119 73.8907
vt 0.3500 0.8238 73.8907
vt 0.3781 0.7901 73.8907
vt 0.4000 0.7650 73.8907
vt 0.4219 0.7901 73.8907
vt 0.4500 0.8238 73.8907
vt 0.3250 0.7278 73.8907
vt 0.3625 0.7182 73.8907
vt 0.3563 0.6464 73.8907
vt 0.4000 0.6500 73.8907
vt 0.4000 0.7135 73.8907
vt 0.4750 0.7278 73.8907
vt 0.4375 0.7182 73.8907
vt 0.4438 0.6464 73.8907
vt 0.4719 0.5589 73.8907
vt 0.5000 0.5206 73.8907
vt 0.5281 0.5589 73.8907
vt 0.4500 0.5000 73.8907
vt 0.4781 0.4720 73.8907
vt 0.5000 0.4505 73.8907
vt 0.5219 0.4720 73.8907
vt 0.5500 0.5000 73.8907
vt 0.4281 0.4411 73.8907
vt 0.4625 0.4167 73.8907
vt 0.4000 0.3709 73.8908
vt 0.4563 0.3536 73.8907
vt 0.5000 0.3500 73.8907
vt 0.5000 0.4080 73.8907
vt 0.6000 0.3709 73.8908
vt 0.5719 0.4411 73.8907
vt 0.5375 0.4167 73.8907
vt 0.5437 0.3536 73.8907
vt 0.6719 0.5589 73.8907
vt 0.7000 0.5206 73.8907
vt 0.7281 0.5589 73.8907
vt 0.6500 0.5000 73.8907
vt 0.6781 0.4720 73.8907
vt 0.7000 0.4500 73.8907
vt 0.7219 0.4710 73.8907
vt 0.7500 0.4985 73.8907
vt 0.6281 0.4411 73.8907
vt 0.6625 0.4167 73.8907
vt 0.6562 0.3536 73.8907
vt 0.7000 0.3485 73.8907
vt 0.7000 0.4070 73.8907
vt 0.8000 0.3524 73.8907
vt 0.7719 0.4351 73.8907
vt 0.7375 0.4127 73.8907
vt 0.7437 0.3476 73.8907
vt -0.1250 0.5738 73.8907
vt -0.1000 0.5246 73.8907
vt -0.0750 0.5738 73.8907
vt -0.1500 0.5000 73.8907
vt -0.1219 0.4723 73.8907
vt -0.1000 0.4512 73.8907
vt -0.0781 0.4733 73.8907
vt -0.0500 0.5000 73.8907
vt -0.1750 0.4262 73.8907
vt -0.1375 0.4139 73.8907
vt -0.2000 0.3524 73.8907
vt -0.1500 0.3524 73.8907
vt -0.1000 0.3524 73.8907
vt -0.1000 0.4088 73.8907
vt 0.0000 0.3712 73.8908
vt -0.0250 0.4341 73.8907
vt -0.0625 0.4179 73.8907
vt -0.0500 0.3603 73.8907
vt 0.0719 0.5586 73.8907
vt 0.1000 0.5206 73.8907
vt 0.1281 0.5589 73.8907
vt 0.0500 0.4999 73.8907
vt 0.0781 0.4720 73.8907
vt 0.1000 0.4505 73.8907
vt 0.1219 0.4720 73.8907
vt 0.1500 0.5000 73.8907
vt 0.0281 0.4411 73.8907
vt 0.0625 0.4167 73.8907
vt 0.0563 0.3536 73.8907
vt 0.1000 0.3500 73.8907
vt 0.1000 0.4080 73.8907
vt 0.2000 0.3709 73.8908
vt 0.1719 0.4411 73.8907
vt 0.1375 0.4167 73.8907
vt 0.1438 0.3536 73.8907
vt 0.2719 0.5589 73.8907
vt 0.3000 0.5206 73.8907
vt 0.3281 0.5589 73.8907
vt 0.2500 0.5000 73.8907
vt 0.2781 0.4720 73.8907
vt 0.3000 0.4505 73.8907
vt 0.3219 0.4720 73.8907
vt 0.3500 0.5000 73.8907
vt 0.2281 0.4411 73.8907
vt 0.2625 0.4167 73.8907
vt 0.2563 0.3536 73.8907
vt 0.3000 0.3500 73.8907
vt 0.3000 0.4080 73.8907
vt 0.3719 0.4411 73.8907
vt 0.3375 0.4167 73.8907
vt 0.3438 0.3536 73.8907
vt 0.6000 0.4794 73.8907
vt 0.6219 0.5280 73.8907
vt 0.6000 0.5495 73.8907
vt 0.5781 0.5280 73.8907
vt 0.6375 0.5833 73.8907
vt 0.6000 0.5920 73.8907
vt 0.5625 0.5833 73.8907
vt 0.8250 0.4262 73.8907
vt 0.8000 0.4754 73.8907
vt 0.8500 0.5000 73.8907
vt 0.8219 0.5280 73.8907
vt 0.8000 0.5495 73.8907
vt 0.7781 0.5270 73.8907
vt 0.8750 0.5738 73.8907
vt 0.8375 0.5873 73.8907
vt 0.8000 0.5930 73.8907
vt 0.7625 0.5833 73.8907
vt 0.0000 0.4794 73.8907
vt 0.0219 0.5277 73.8907
vt 0.0000 0.5492 73.8907
vt -0.0219 0.5287 73.8907
vt 0.0375 0.5821 73.8907
vt 0.0000 0.5912 73.8907
vt -0.0375 0.5861 73.8907
vt 0.2000 0.4794 73.8907
vt 0.2219 0.5280 73.8907
vt 0.2000 0.5495 73.8907
vt 0.1781 0.5280 73.8907
vt 0.2375 0.5833 73.8907
vt 0.2000 0.5920 73.8907
vt 0.1625 0.5833 73.8907
vt 0.4000 0.4794 73.8907
vt 0.4219 0.5280 73.8907
vt 0.4000 0.5495 73.8907
vt 0.3781 0.5280 73.8907
vt 0.4375 0.5833 73.8907
vt 0.4000 0.5920 73.8907
vt 0.3625 0.5833 73.8907
vt 0.7000 0.0000 73.8907
vt 0.7250 0.0881 73.8907
vt 0.7000 0.1468 73.8907
vt 0.6750 0.0881 73.8907
vt 0.7500 0.1762 73.8907
vt 0.7219 0.2089 73.8907
vt 0.7000 0.2346 73.8907
vt 0.6781 0.2099 73.8907
vt 0.6500 0.1762 73.8907
vt 0.7750 0.2643 73.8907
vt 0.7375 0.2778 73.8907
vt 0.7000 0.2855 73.8907
vt 0.6250 0.2722 73.8907
vt 0.6625 0.2818 73.8907
vt -0.1000 0.0000 73.8907
vt -0.0750 0.0881 73.8907
vt -0.1000 0.1468 73.8907
vt -0.1250 0.0881 73.8907
vt -0.0500 0.1762 73.8907
vt -0.0781 0.2102 73.8907
vt -0.1000 0.2354 73.8907
vt -0.1219 0.2092 73.8907
vt -0.1500 0.1762 73.8907
vt -0.0250 0.2722 73.8907
vt -0.0625 0.2830 73.8907
vt -0.1000 0.2873 73.8907
vt -0.1750 0.2643 73.8907
vt -0.1375 0.2790 73.8907
vt 0.1000 0.0000 73.8907
vt 0.1250 0.0881 73.8907
vt 0.1000 0.1468 73.8907
vt 0.0750 0.0881 73.8907
vt 0.1500 0.1762 73.8907
vt 0.1219 0.2099 73.8907
vt 0.1000 0.2350 73.8907
vt 0.0781 0.2099 73.8907
vt 0.0500 0.1762 73.8907
vt 0.1750 0.2722 73.8907
vt 0.1375 0.2818 73.8907
vt 0.1000 0.2865 73.8907
vt 0.0250 0.2722 73.8907
vt 0.0625 0.2818 73.8907
vt 0.3000 0.0000 73.8907
vt 0.3250 0.0881 73.8907
vt 0.3000 0.1468 73.8907
vt 0.2750 0.0881 73.8907
vt 0.3500 0.1762 73.8907
vt 0.3219 0.2099 73.8907
vt 0.3000 0.2350 73.8907
vt 0.2781 0.2099 73.8907
vt 0.2500 0.1762 73.8907
vt 0.3750 0.2722 73.8907
vt 0.3375 0.2818 73.8907
vt 0.3000 0.2865 73.8907
vt 0.2250 0.2722 73.8907
vt 0.2625 0.2818 73.8907
vt 0.5000 0.0000 73.8907
vt 0.5250 0.0881 73.8907
vt 0.5000 0.1468 73.8907
vt 0.4750 0.0881 73.8907
vt 0.5500 0.1762 73.8907
vt 0.5219 0.2099 73.8907
vt 0.5000 0.2350 73.8907
vt 0.4781 0.2099 73.8907
vt 0.4500 0.1762 73.8907
vt 0.5750 0.2722 73.8907
vt 0.5375 0.2818 73.8907
vt 0.5000 0.2865 73.8907
vt 0.4250 0.2722 73.8907
vt 0.4625 0.2818 73.8907
# 285 texture coords

o rock1
g rock1
usemtl wire_115115115
s 1
f 1/1/1 2/2/2 3/3/3 4/4/4 
f 2/2/2 5/5/5 6/6/6 3/3/3 
f 7/7/7 8/8/8 3/3/3 6/6/6 
f 8/8/8 9/9/9 4/4/4 3/3/3 
f 5/5/5 10/10/10 11/11/11 6/6/6 
f 10/10/10 12/12/12 13/13/13 11/11/11 
f 14/14/14 15/15/15 11/11/11 13/13/13 
f 15/15/15 7/7/7 6/6/6 11/11/11 
f 16/16/16 17/17/17 18/18/18 19/19/19 
f 17/17/17 9/9/9 8/8/8 18/18/18 
f 7/7/7 15/15/15 18/18/18 8/8/8 
f 15/15/15 14/14/14 19/19/19 18/18/18 
f 1/20/1 4/21/4 20/22/20 21/23/21 
f 4/21/4 9/24/9 22/25/22 20/22/20 
f 23/26/23 24/27/24 20/22/20 22/25/22 
f 24/27/24 25/28/25 21/23/21 20/22/20 
f 9/24/9 17/29/17 26/30/26 22/25/22 
f 17/29/17 16/16/16 27/31/27 26/30/26 
f 28/32/28 29/33/29 26/30/26 27/31/27 
f 29/33/29 23/26/23 22/25/22 26/30/26 
f 30/34/30 31/35/31 32/36/32 33/37/33 
f 31/35/31 25/28/25 24/27/24 32/36/32 
f 23/26/23 29/33/29 32/36/32 24/27/24 
f 29/33/29 28/32/28 33/37/33 32/36/32 
f 1/38/1 21/39/21 34/40/34 35/41/35 
f 21/39/21 25/42/25 36/43/36 34/40/34 
f 37/44/37 38/45/38 34/40/34 36/43/36 
f 38/45/38 39/46/39 35/41/35 34/40/34 
f 25/42/25 31/47/31 40/48/40 36/43/36 
f 31/47/31 30/49/30 41/50/41 40/48/40 
f 42/51/42 43/52/43 40/48/40 41/50/41 
f 43/52/43 37/44/37 36/43/36 40/48/40 
f 44/53/44 45/54/45 46/55/46 47/56/47 
f 45/54/45 39/46/39 38/45/38 46/55/46 
f 37/44/37 43/52/43 46/55/46 38/45/38 
f 43/52/43 42/51/42 47/56/47 46/55/46 
f 1/57/1 35/58/35 48/59/48 49/60/49 
f 35/58/35 39/61/39 50/62/50 48/59/48 
f 51/63/51 52/64/52 48/59/48 50/62/50 
f 52/64/52 53/65/53 49/60/49 48/59/48 
f 39/61/39 45/66/45 54/67/54 50/62/50 
f 45/66/45 44/53/44 55/68/55 54/67/54 
f 56/69/56 57/70/57 54/67/54 55/68/55 
f 57/70/57 51/63/51 50/62/50 54/67/54 
f 58/71/58 59/72/59 60/73/60 61/74/61 
f 59/72/59 53/65/53 52/64/52 60/73/60 
f 51/63/51 57/70/57 60/73/60 52/64/52 
f 57/70/57 56/69/56 61/74/61 60/73/60 
f 1/75/1 49/76/49 62/77/62 2/78/2 
f 49/76/49 53/79/53 63/80/63 62/77/62 
f 64/81/64 65/82/65 62/77/62 63/80/63 
f 65/82/65 5/83/5 2/78/2 62/77/62 
f 53/79/53 59/84/59 66/85/66 63/80/63 
f 59/84/59 58/71/58 67/86/67 66/85/66 
f 68/87/68 69/88/69 66/85/66 67/86/67 
f 69/88/69 64/81/64 63/80/63 66/85/66 
f 12/12/12 10/89/10 70/90/70 71/91/71 
f 10/89/10 5/83/5 65/82/65 70/90/70 
f 64/81/64 69/88/69 70/90/70 65/82/65 
f 69/88/69 68/87/68 71/91/71 70/90/70 
f 12/12/12 72/92/72 73/93/73 74/94/74 
f 72/92/72 75/95/75 76/96/76 73/93/73 
f 77/97/77 78/98/78 73/93/73 76/96/76 
f 78/98/78 79/99/79 74/94/74 73/93/73 
f 75/95/75 80/100/80 81/101/81 76/96/76 
f 80/100/80 82/102/82 83/103/83 81/101/81 
f 84/104/84 85/105/85 81/101/81 83/103/83 
f 85/105/85 77/97/77 76/96/76 81/101/81 
f 86/106/86 87/107/87 88/108/88 89/109/89 
f 87/107/87 79/99/79 78/98/78 88/108/88 
f 77/97/77 85/105/85 88/108/88 78/98/78 
f 85/105/85 84/104/84 89/109/89 88/108/88 
f 16/16/16 90/110/90 91/111/91 92/112/92 
f 90/110/90 93/113/93 94/114/94 91/111/91 
f 95/115/95 96/116/96 91/111/91 94/114/94 
f 96/116/96 97/117/97 92/112/92 91/111/91 
f 93/113/93 98/118/98 99/119/99 94/114/94 
f 98/118/98 86/106/86 100/120/100 99/119/99 
f 101/121/101 102/122/102 99/119/99 100/120/100 
f 102/122/102 95/115/95 94/114/94 99/119/99 
f 103/123/103 104/124/104 105/125/105 106/126/106 
f 104/124/104 97/117/97 96/116/96 105/125/105 
f 95/115/95 102/122/102 105/125/105 96/116/96 
f 102/122/102 101/121/101 106/126/106 105/125/105 
f 30/49/30 107/127/107 108/128/108 109/129/109 
f 107/127/107 110/130/110 111/131/111 108/128/108 
f 112/132/112 113/133/113 108/128/108 111/131/111 
f 113/133/113 114/134/114 109/129/109 108/128/108 
f 110/130/110 115/135/115 116/136/116 111/131/111 
f 115/135/115 103/137/103 117/138/117 116/136/116 
f 118/139/118 119/140/119 116/136/116 117/138/117 
f 119/140/119 112/132/112 111/131/111 116/136/116 
f 120/141/120 121/142/121 122/143/122 123/144/123 
f 121/142/121 114/134/114 113/133/113 122/143/122 
f 112/132/112 119/140/119 122/143/122 113/133/113 
f 119/140/119 118/139/118 123/144/123 122/143/122 
f 44/53/44 124/145/124 125/146/125 126/147/126 
f 124/145/124 127/148/127 128/149/128 125/146/125 
f 129/150/129 130/151/130 125/146/125 128/149/128 
f 130/151/130 131/152/131 126/147/126 125/146/125 
f 127/148/127 132/153/132 133/154/133 128/149/128 
f 132/153/132 120/141/120 134/155/134 133/154/133 
f 135/156/135 136/157/136 133/154/133 134/155/134 
f 136/157/136 129/150/129 128/149/128 133/154/133 
f 137/158/137 138/159/138 139/160/139 140/161/140 
f 138/159/138 131/152/131 130/151/130 139/160/139 
f 129/150/129 136/157/136 139/160/139 130/151/130 
f 136/157/136 135/156/135 140/161/140 139/160/139 
f 58/71/58 141/162/141 142/163/142 143/164/143 
f 141/162/141 144/165/144 145/166/145 142/163/142 
f 146/167/146 147/168/147 142/163/142 145/166/145 
f 147/168/147 148/169/148 143/164/143 142/163/142 
f 144/165/144 149/170/149 150/171/150 145/166/145 
f 149/170/149 137/158/137 151/172/151 150/171/150 
f 152/173/152 153/174/153 150/171/150 151/172/151 
f 153/174/153 146/167/146 145/166/145 150/171/150 
f 82/102/82 154/175/154 155/176/155 156/177/156 
f 154/175/154 148/169/148 147/168/147 155/176/155 
f 146/167/146 153/174/153 155/176/155 147/168/147 
f 153/174/153 152/173/152 156/177/156 155/176/155 
f 86/106/86 98/118/98 157/178/157 87/107/87 
f 98/118/98 93/113/93 158/179/158 157/178/157 
f 159/180/159 160/181/160 157/178/157 158/179/158 
f 160/181/160 79/99/79 87/107/87 157/178/157 
f 93/113/93 90/110/90 161/182/161 158/179/158 
f 90/110/90 16/16/16 19/19/19 161/182/161 
f 14/14/14 162/183/162 161/182/161 19/19/19 
f 162/183/162 159/180/159 158/179/158 161/182/161 
f 12/12/12 74/94/74 163/184/163 13/13/13 
f 74/94/74 79/99/79 160/181/160 163/184/163 
f 159/180/159 162/183/162 163/184/163 160/181/160 
f 162/183/162 14/14/14 13/13/13 163/184/163 
f 103/123/103 115/185/115 164/186/164 104/124/104 
f 115/185/115 110/187/110 165/188/165 164/186/164 
f 166/189/166 167/190/167 164/186/164 165/188/165 
f 167/190/167 97/117/97 104/124/104 164/186/164 
f 110/187/110 107/191/107 168/192/168 165/188/165 
f 107/191/107 30/34/30 33/37/33 168/192/168 
f 28/32/28 169/193/169 168/192/168 33/37/33 
f 169/193/169 166/189/166 165/188/165 168/192/168 
f 16/16/16 92/112/92 170/194/170 27/31/27 
f 92/112/92 97/117/97 167/190/167 170/194/170 
f 166/189/166 169/193/169 170/194/170 167/190/167 
f 169/193/169 28/32/28 27/31/27 170/194/170 
f 120/141/120 132/153/132 171/195/171 121/142/121 
f 132/153/132 127/148/127 172/196/172 171/195/171 
f 173/197/173 174/198/174 171/195/171 172/196/172 
f 174/198/174 114/134/114 121/142/121 171/195/171 
f 127/148/127 124/145/124 175/199/175 172/196/172 
f 124/145/124 44/53/44 47/56/47 175/199/175 
f 42/51/42 176/200/176 175/199/175 47/56/47 
f 176/200/176 173/197/173 172/196/172 175/199/175 
f 30/49/30 109/129/109 177/201/177 41/50/41 
f 109/129/109 114/134/114 174/198/174 177/201/177 
f 173/197/173 176/200/176 177/201/177 174/198/174 
f 176/200/176 42/51/42 41/50/41 177/201/177 
f 137/158/137 149/170/149 178/202/178 138/159/138 
f 149/170/149 144/165/144 179/203/179 178/202/178 
f 180/204/180 181/205/181 178/202/178 179/203/179 
f 181/205/181 131/152/131 138/159/138 178/202/178 
f 144/165/144 141/162/141 182/206/182 179/203/179 
f 141/162/141 58/71/58 61/74/61 182/206/182 
f 56/69/56 183/207/183 182/206/182 61/74/61 
f 183/207/183 180/204/180 179/203/179 182/206/182 
f 44/53/44 126/147/126 184/208/184 55/68/55 
f 126/147/126 131/152/131 181/205/181 184/208/184 
f 180/204/180 183/207/183 184/208/184 181/205/181 
f 183/207/183 56/69/56 55/68/55 184/208/184 
f 82/102/82 80/100/80 185/209/185 154/175/154 
f 80/100/80 75/95/75 186/210/186 185/209/185 
f 187/211/187 188/212/188 185/209/185 186/210/186 
f 188/212/188 148/169/148 154/175/154 185/209/185 
f 75/95/75 72/92/72 189/213/189 186/210/186 
f 72/92/72 12/12/12 71/91/71 189/213/189 
f 68/87/68 190/214/190 189/213/189 71/91/71 
f 190/214/190 187/211/187 186/210/186 189/213/189 
f 58/71/58 143/164/143 191/215/191 67/86/67 
f 143/164/143 148/169/148 188/212/188 191/215/191 
f 187/211/187 190/214/190 191/215/191 188/212/188 
f 190/214/190 68/87/68 67/86/67 191/215/191 
f 192/216/192 193/217/193 194/218/194 195/219/195 
f 193/217/193 196/220/196 197/221/197 194/218/194 
f 198/222/198 199/223/199 194/218/194 197/221/197 
f 199/223/199 200/224/200 195/219/195 194/218/194 
f 196/220/196 201/225/201 202/226/202 197/221/197 
f 201/225/201 103/123/103 106/126/106 202/226/202 
f 101/121/101 203/227/203 202/226/202 106/126/106 
f 203/227/203 198/222/198 197/221/197 202/226/202 
f 86/106/86 204/228/204 205/229/205 100/120/100 
f 204/228/204 200/224/200 199/223/199 205/229/205 
f 198/222/198 203/227/203 205/229/205 199/223/199 
f 203/227/203 101/121/101 100/120/100 205/229/205 
f 192/230/192 206/231/206 207/232/207 193/233/193 
f 206/231/206 208/234/208 209/235/209 207/232/207 
f 210/236/210 211/237/211 207/232/207 209/235/209 
f 211/237/211 196/238/196 193/233/193 207/232/207 
f 208/234/208 212/239/212 213/240/213 209/235/209 
f 212/239/212 120/141/120 123/144/123 213/240/213 
f 118/139/118 214/241/214 213/240/213 123/144/123 
f 214/241/214 210/236/210 209/235/209 213/240/213 
f 103/137/103 201/242/201 215/243/215 117/138/117 
f 201/242/201 196/238/196 211/237/211 215/243/215 
f 210/236/210 214/241/214 215/243/215 211/237/211 
f 214/241/214 118/139/118 117/138/117 215/243/215 
f 192/244/192 216/245/216 217/246/217 206/247/206 
f 216/245/216 218/248/218 219/249/219 217/246/217 
f 220/250/220 221/251/221 217/246/217 219/249/219 
f 221/251/221 208/252/208 206/247/206 217/246/217 
f 218/248/218 222/253/222 223/254/223 219/249/219 
f 222/253/222 137/158/137 140/161/140 223/254/223 
f 135/156/135 224/255/224 223/254/223 140/161/140 
f 224/255/224 220/250/220 219/249/219 223/254/223 
f 120/141/120 212/256/212 225/257/225 134/155/134 
f 212/256/212 208/252/208 221/251/221 225/257/225 
f 220/250/220 224/255/224 225/257/225 221/251/221 
f 224/255/224 135/156/135 134/155/134 225/257/225 
f 192/258/192 226/259/226 227/260/227 216/261/216 
f 226/259/226 228/262/228 229/263/229 227/260/227 
f 230/264/230 231/265/231 227/260/227 229/263/229 
f 231/265/231 218/266/218 216/261/216 227/260/227 
f 228/262/228 232/267/232 233/268/233 229/263/229 
f 232/267/232 82/102/82 156/177/156 233/268/233 
f 152/173/152 234/269/234 233/268/233 156/177/156 
f 234/269/234 230/264/230 229/263/229 233/268/233 
f 137/158/137 222/270/222 235/271/235 151/172/151 
f 222/270/222 218/266/218 231/265/231 235/271/235 
f 230/264/230 234/269/234 235/271/235 231/265/231 
f 234/269/234 152/173/152 151/172/151 235/271/235 
f 192/272/192 195/273/195 236/274/236 226/275/226 
f 195/273/195 200/276/200 237/277/237 236/274/236 
f 238/278/238 239/279/239 236/274/236 237/277/237 
f 239/279/239 228/280/228 226/275/226 236/274/236 
f 200/276/200 204/281/204 240/282/240 237/277/237 
f 204/281/204 86/106/86 89/109/89 240/282/240 
f 84/104/84 241/283/241 240/282/240 89/109/89 
f 241/283/241 238/278/238 237/277/237 240/282/240 
f 82/102/82 232/284/232 242/285/242 83/103/83 
f 232/284/232 228/280/228 239/279/239 242/285/242 
f 238/278/238 241/283/241 242/285/242 239/279/239 
f 241/283/241 84/104/84 83/103/83 242/285/242 
# 240 polygons

